[2021-10-24T17:18:51.616+0200][gc,heap] Heap region size: 1M
[2021-10-24T17:18:51.634+0200][gc     ] Using G1
[2021-10-24T17:18:51.635+0200][gc,heap,coops] Heap address: 0x00000000c0000000, size: 1024 MB, Compressed Oops mode: 32-bit
[2021-10-24T17:18:51.635+0200][gc,cds       ] Mark closed archive regions in map: [0x00000000fff00000, 0x00000000fff6aff8]
[2021-10-24T17:18:51.635+0200][gc,cds       ] Mark open archive regions in map: [0x00000000ffe00000, 0x00000000ffe46ff8]
[2021-10-24T17:18:53.603+0200][gc,start     ] GC(0) Pause Young (Normal) (G1 Evacuation Pause)
[2021-10-24T17:18:53.604+0200][gc,task      ] GC(0) Using 2 workers of 2 for evacuation
[2021-10-24T17:18:53.642+0200][gc,mmu       ] GC(0) MMU target violated: 21.0ms (20.0ms/21.0ms)
[2021-10-24T17:18:53.642+0200][gc,phases    ] GC(0)   Pre Evacuate Collection Set: 0.0ms
[2021-10-24T17:18:53.642+0200][gc,phases    ] GC(0)   Evacuate Collection Set: 36.7ms
[2021-10-24T17:18:53.642+0200][gc,phases    ] GC(0)   Post Evacuate Collection Set: 1.7ms
[2021-10-24T17:18:53.642+0200][gc,phases    ] GC(0)   Other: 0.9ms
[2021-10-24T17:18:53.642+0200][gc,heap      ] GC(0) Eden regions: 51->0(44)
[2021-10-24T17:18:53.642+0200][gc,heap      ] GC(0) Survivor regions: 0->7(7)
[2021-10-24T17:18:53.642+0200][gc,heap      ] GC(0) Old regions: 2->2
[2021-10-24T17:18:53.642+0200][gc,heap      ] GC(0) Humongous regions: 0->0
[2021-10-24T17:18:53.642+0200][gc,metaspace ] GC(0) Metaspace: 15074K->15074K(1062912K)
[2021-10-24T17:18:53.642+0200][gc           ] GC(0) Pause Young (Normal) (G1 Evacuation Pause) 51M->7M(1024M) 39.386ms
[2021-10-24T17:18:53.643+0200][gc,cpu       ] GC(0) User=0.01s Sys=0.05s Real=0.04s
[2021-10-24T17:18:54.171+0200][gc,start     ] GC(1) Pause Young (Concurrent Start) (Metadata GC Threshold)
[2021-10-24T17:18:54.171+0200][gc,task      ] GC(1) Using 2 workers of 2 for evacuation
[2021-10-24T17:18:54.219+0200][gc,mmu       ] GC(1) MMU target violated: 21.0ms (20.0ms/21.0ms)
[2021-10-24T17:18:54.219+0200][gc,phases    ] GC(1)   Pre Evacuate Collection Set: 0.1ms
[2021-10-24T17:18:54.219+0200][gc,phases    ] GC(1)   Evacuate Collection Set: 47.1ms
[2021-10-24T17:18:54.219+0200][gc,phases    ] GC(1)   Post Evacuate Collection Set: 0.6ms
[2021-10-24T17:18:54.219+0200][gc,phases    ] GC(1)   Other: 0.5ms
[2021-10-24T17:18:54.219+0200][gc,heap      ] GC(1) Eden regions: 23->0(50)
[2021-10-24T17:18:54.219+0200][gc,heap      ] GC(1) Survivor regions: 7->1(7)
[2021-10-24T17:18:54.219+0200][gc,heap      ] GC(1) Old regions: 2->9
[2021-10-24T17:18:54.219+0200][gc,heap      ] GC(1) Humongous regions: 0->0
[2021-10-24T17:18:54.219+0200][gc,metaspace ] GC(1) Metaspace: 20603K->20603K(1067008K)
[2021-10-24T17:18:54.219+0200][gc           ] GC(1) Pause Young (Concurrent Start) (Metadata GC Threshold) 29M->8M(1024M) 48.294ms
[2021-10-24T17:18:54.219+0200][gc,cpu       ] GC(1) User=0.01s Sys=0.07s Real=0.04s
[2021-10-24T17:18:54.219+0200][gc           ] GC(2) Concurrent Cycle
[2021-10-24T17:18:54.219+0200][gc,marking   ] GC(2) Concurrent Clear Claimed Marks
[2021-10-24T17:18:54.219+0200][gc,marking   ] GC(2) Concurrent Clear Claimed Marks 0.071ms
[2021-10-24T17:18:54.219+0200][gc,marking   ] GC(2) Concurrent Scan Root Regions
[2021-10-24T17:18:54.222+0200][gc,marking   ] GC(2) Concurrent Scan Root Regions 2.612ms
[2021-10-24T17:18:54.222+0200][gc,marking   ] GC(2) Concurrent Mark (2.611s)
[2021-10-24T17:18:54.222+0200][gc,marking   ] GC(2) Concurrent Mark From Roots
[2021-10-24T17:18:54.222+0200][gc,task      ] GC(2) Using 1 workers of 1 for marking
[2021-10-24T17:18:54.245+0200][gc,marking   ] GC(2) Concurrent Mark From Roots 22.927ms
[2021-10-24T17:18:54.245+0200][gc,marking   ] GC(2) Concurrent Preclean
[2021-10-24T17:18:54.245+0200][gc,marking   ] GC(2) Concurrent Preclean 0.114ms
[2021-10-24T17:18:54.245+0200][gc,marking   ] GC(2) Concurrent Mark (2.611s, 2.635s) 23.098ms
[2021-10-24T17:18:54.245+0200][gc,start     ] GC(2) Pause Remark
[2021-10-24T17:18:54.247+0200][gc,stringtable] GC(2) Cleaned string and symbol table, strings: 5136 processed, 0 removed, symbols: 51113 processed, 59 removed
[2021-10-24T17:18:54.248+0200][gc            ] GC(2) Pause Remark 9M->9M(1024M) 2.484ms
[2021-10-24T17:18:54.248+0200][gc,cpu        ] GC(2) User=0.00s Sys=0.00s Real=0.00s
[2021-10-24T17:18:54.249+0200][gc,marking    ] GC(2) Concurrent Rebuild Remembered Sets
[2021-10-24T17:18:54.255+0200][gc,marking    ] GC(2) Concurrent Rebuild Remembered Sets 6.762ms
[2021-10-24T17:18:54.255+0200][gc,start      ] GC(2) Pause Cleanup
[2021-10-24T17:18:54.256+0200][gc            ] GC(2) Pause Cleanup 10M->10M(1024M) 0.319ms
[2021-10-24T17:18:54.256+0200][gc,cpu        ] GC(2) User=0.00s Sys=0.00s Real=0.00s
[2021-10-24T17:18:54.256+0200][gc,marking    ] GC(2) Concurrent Cleanup for Next Mark
[2021-10-24T17:18:54.473+0200][gc,marking    ] GC(2) Concurrent Cleanup for Next Mark 217.423ms
[2021-10-24T17:18:54.473+0200][gc            ] GC(2) Concurrent Cycle 253.965ms
[2021-10-24T17:18:55.952+0200][gc,start      ] GC(3) Pause Young (Normal) (G1 Evacuation Pause)
[2021-10-24T17:18:55.952+0200][gc,task       ] GC(3) Using 2 workers of 2 for evacuation
[2021-10-24T17:18:55.963+0200][gc,phases     ] GC(3)   Pre Evacuate Collection Set: 0.0ms
[2021-10-24T17:18:55.963+0200][gc,phases     ] GC(3)   Evacuate Collection Set: 9.5ms
[2021-10-24T17:18:55.963+0200][gc,phases     ] GC(3)   Post Evacuate Collection Set: 0.9ms
[2021-10-24T17:18:55.963+0200][gc,phases     ] GC(3)   Other: 0.3ms
[2021-10-24T17:18:55.963+0200][gc,heap       ] GC(3) Eden regions: 50->0(46)
[2021-10-24T17:18:55.963+0200][gc,heap       ] GC(3) Survivor regions: 1->5(7)
[2021-10-24T17:18:55.963+0200][gc,heap       ] GC(3) Old regions: 9->9
[2021-10-24T17:18:55.963+0200][gc,heap       ] GC(3) Humongous regions: 129->129
[2021-10-24T17:18:55.963+0200][gc,metaspace  ] GC(3) Metaspace: 29409K->29409K(1075200K)
[2021-10-24T17:18:55.963+0200][gc            ] GC(3) Pause Young (Normal) (G1 Evacuation Pause) 187M->140M(1024M) 10.855ms
[2021-10-24T17:18:55.963+0200][gc,cpu        ] GC(3) User=0.00s Sys=0.01s Real=0.01s
[2021-10-24T17:18:56.728+0200][gc,start      ] GC(4) Pause Young (Concurrent Start) (Metadata GC Threshold)
[2021-10-24T17:18:56.728+0200][gc,task       ] GC(4) Using 2 workers of 2 for evacuation
[2021-10-24T17:18:56.751+0200][gc,mmu        ] GC(4) MMU target violated: 21.0ms (20.0ms/21.0ms)
[2021-10-24T17:18:56.751+0200][gc,phases     ] GC(4)   Pre Evacuate Collection Set: 0.5ms
[2021-10-24T17:18:56.751+0200][gc,phases     ] GC(4)   Evacuate Collection Set: 21.4ms
[2021-10-24T17:18:56.751+0200][gc,phases     ] GC(4)   Post Evacuate Collection Set: 0.6ms
[2021-10-24T17:18:56.751+0200][gc,phases     ] GC(4)   Other: 0.6ms
[2021-10-24T17:18:56.751+0200][gc,heap       ] GC(4) Eden regions: 25->0(49)
[2021-10-24T17:18:56.751+0200][gc,heap       ] GC(4) Survivor regions: 5->2(7)
[2021-10-24T17:18:56.751+0200][gc,heap       ] GC(4) Old regions: 9->13
[2021-10-24T17:18:56.751+0200][gc,heap       ] GC(4) Humongous regions: 129->129
[2021-10-24T17:18:56.751+0200][gc,metaspace  ] GC(4) Metaspace: 34575K->34575K(1081344K)
[2021-10-24T17:18:56.751+0200][gc            ] GC(4) Pause Young (Concurrent Start) (Metadata GC Threshold) 165M->142M(1024M) 23.080ms
[2021-10-24T17:18:56.751+0200][gc,cpu        ] GC(4) User=0.03s Sys=0.01s Real=0.03s
[2021-10-24T17:18:56.751+0200][gc            ] GC(5) Concurrent Cycle
[2021-10-24T17:18:56.751+0200][gc,marking    ] GC(5) Concurrent Clear Claimed Marks
[2021-10-24T17:18:56.751+0200][gc,marking    ] GC(5) Concurrent Clear Claimed Marks 0.137ms
[2021-10-24T17:18:56.751+0200][gc,marking    ] GC(5) Concurrent Scan Root Regions
[2021-10-24T17:18:56.752+0200][gc,marking    ] GC(5) Concurrent Scan Root Regions 1.279ms
[2021-10-24T17:18:56.752+0200][gc,marking    ] GC(5) Concurrent Mark (5.142s)
[2021-10-24T17:18:56.752+0200][gc,marking    ] GC(5) Concurrent Mark From Roots
[2021-10-24T17:18:56.752+0200][gc,task       ] GC(5) Using 1 workers of 1 for marking
[2021-10-24T17:18:56.785+0200][gc,marking    ] GC(5) Concurrent Mark From Roots 32.201ms
[2021-10-24T17:18:56.785+0200][gc,marking    ] GC(5) Concurrent Preclean
[2021-10-24T17:18:56.785+0200][gc,marking    ] GC(5) Concurrent Preclean 0.063ms
[2021-10-24T17:18:56.785+0200][gc,marking    ] GC(5) Concurrent Mark (5.142s, 5.174s) 32.339ms
[2021-10-24T17:18:56.785+0200][gc,start      ] GC(5) Pause Remark
[2021-10-24T17:18:56.788+0200][gc,stringtable] GC(5) Cleaned string and symbol table, strings: 10515 processed, 12 removed, symbols: 83914 processed, 17 removed
[2021-10-24T17:18:56.789+0200][gc            ] GC(5) Pause Remark 144M->144M(1024M) 3.286ms
[2021-10-24T17:18:56.789+0200][gc,cpu        ] GC(5) User=0.00s Sys=0.00s Real=0.00s
[2021-10-24T17:18:56.789+0200][gc,marking    ] GC(5) Concurrent Rebuild Remembered Sets
[2021-10-24T17:18:56.811+0200][gc,marking    ] GC(5) Concurrent Rebuild Remembered Sets 22.775ms
[2021-10-24T17:18:56.812+0200][gc,start      ] GC(5) Pause Cleanup
[2021-10-24T17:18:56.812+0200][gc            ] GC(5) Pause Cleanup 145M->145M(1024M) 0.151ms
[2021-10-24T17:18:56.812+0200][gc,cpu        ] GC(5) User=0.00s Sys=0.00s Real=0.00s
[2021-10-24T17:18:56.812+0200][gc,marking    ] GC(5) Concurrent Cleanup for Next Mark
[2021-10-24T17:18:56.860+0200][gc,marking    ] GC(5) Concurrent Cleanup for Next Mark 48.628ms
[2021-10-24T17:18:56.861+0200][gc            ] GC(5) Concurrent Cycle 109.671ms
[2021-10-24T17:28:09.722+0200][gc,start      ] GC(6) Pause Young (Normal) (G1 Evacuation Pause)
[2021-10-24T17:28:09.727+0200][gc,task       ] GC(6) Using 2 workers of 2 for evacuation
[2021-10-24T17:28:09.762+0200][gc,mmu        ] GC(6) MMU target violated: 21.0ms (20.0ms/21.0ms)
[2021-10-24T17:28:09.762+0200][gc,phases     ] GC(6)   Pre Evacuate Collection Set: 1.5ms
[2021-10-24T17:28:09.762+0200][gc,phases     ] GC(6)   Evacuate Collection Set: 31.6ms
[2021-10-24T17:28:09.762+0200][gc,phases     ] GC(6)   Post Evacuate Collection Set: 1.1ms
[2021-10-24T17:28:09.762+0200][gc,phases     ] GC(6)   Other: 6.2ms
[2021-10-24T17:28:09.762+0200][gc,heap       ] GC(6) Eden regions: 49->0(46)
[2021-10-24T17:28:09.762+0200][gc,heap       ] GC(6) Survivor regions: 2->5(7)
[2021-10-24T17:28:09.762+0200][gc,heap       ] GC(6) Old regions: 13->13
[2021-10-24T17:28:09.762+0200][gc,heap       ] GC(6) Humongous regions: 129->129
[2021-10-24T17:28:09.762+0200][gc,metaspace  ] GC(6) Metaspace: 40350K->40350K(1085440K)
[2021-10-24T17:28:09.762+0200][gc            ] GC(6) Pause Young (Normal) (G1 Evacuation Pause) 191M->145M(1024M) 40.414ms
[2021-10-24T17:28:09.762+0200][gc,cpu        ] GC(6) User=0.06s Sys=0.00s Real=0.05s
[2021-10-24T17:35:55.269+0200][gc,start      ] GC(7) Pause Young (Normal) (G1 Evacuation Pause)
[2021-10-24T17:35:55.269+0200][gc,task       ] GC(7) Using 2 workers of 2 for evacuation
[2021-10-24T17:35:55.279+0200][gc,phases     ] GC(7)   Pre Evacuate Collection Set: 0.1ms
[2021-10-24T17:35:55.279+0200][gc,phases     ] GC(7)   Evacuate Collection Set: 8.8ms
[2021-10-24T17:35:55.279+0200][gc,phases     ] GC(7)   Post Evacuate Collection Set: 0.5ms
[2021-10-24T17:35:55.279+0200][gc,phases     ] GC(7)   Other: 0.4ms
[2021-10-24T17:35:55.279+0200][gc,heap       ] GC(7) Eden regions: 46->0(48)
[2021-10-24T17:35:55.279+0200][gc,heap       ] GC(7) Survivor regions: 5->3(7)
[2021-10-24T17:35:55.279+0200][gc,heap       ] GC(7) Old regions: 13->16
[2021-10-24T17:35:55.279+0200][gc,heap       ] GC(7) Humongous regions: 129->129
[2021-10-24T17:35:55.279+0200][gc,metaspace  ] GC(7) Metaspace: 40510K->40510K(1085440K)
[2021-10-24T17:35:55.279+0200][gc            ] GC(7) Pause Young (Normal) (G1 Evacuation Pause) 191M->145M(1024M) 9.873ms
[2021-10-24T17:35:55.279+0200][gc,cpu        ] GC(7) User=0.01s Sys=0.00s Real=0.01s
[2021-10-24T17:44:30.809+0200][gc,start      ] GC(8) Pause Young (Normal) (G1 Evacuation Pause)
[2021-10-24T17:44:30.809+0200][gc,task       ] GC(8) Using 2 workers of 2 for evacuation
[2021-10-24T17:44:30.817+0200][gc,phases     ] GC(8)   Pre Evacuate Collection Set: 0.1ms
[2021-10-24T17:44:30.817+0200][gc,phases     ] GC(8)   Evacuate Collection Set: 7.3ms
[2021-10-24T17:44:30.817+0200][gc,phases     ] GC(8)   Post Evacuate Collection Set: 0.4ms
[2021-10-24T17:44:30.817+0200][gc,phases     ] GC(8)   Other: 0.7ms
[2021-10-24T17:44:30.817+0200][gc,heap       ] GC(8) Eden regions: 48->0(45)
[2021-10-24T17:44:30.817+0200][gc,heap       ] GC(8) Survivor regions: 3->6(7)
[2021-10-24T17:44:30.817+0200][gc,heap       ] GC(8) Old regions: 16->16
[2021-10-24T17:44:30.817+0200][gc,heap       ] GC(8) Humongous regions: 129->129
[2021-10-24T17:44:30.817+0200][gc,metaspace  ] GC(8) Metaspace: 40622K->40622K(1085440K)
[2021-10-24T17:44:30.817+0200][gc            ] GC(8) Pause Young (Normal) (G1 Evacuation Pause) 193M->148M(1024M) 8.561ms
[2021-10-24T17:44:30.817+0200][gc,cpu        ] GC(8) User=0.01s Sys=0.00s Real=0.01s
[2021-10-24T17:52:33.231+0200][gc,start      ] GC(9) Pause Young (Normal) (G1 Evacuation Pause)
[2021-10-24T17:52:33.231+0200][gc,task       ] GC(9) Using 2 workers of 2 for evacuation
[2021-10-24T17:52:33.253+0200][gc,mmu        ] GC(9) MMU target violated: 21.0ms (20.0ms/21.0ms)
[2021-10-24T17:52:33.253+0200][gc,phases     ] GC(9)   Pre Evacuate Collection Set: 0.1ms
[2021-10-24T17:52:33.253+0200][gc,phases     ] GC(9)   Evacuate Collection Set: 21.4ms
[2021-10-24T17:52:33.253+0200][gc,phases     ] GC(9)   Post Evacuate Collection Set: 0.3ms
[2021-10-24T17:52:33.253+0200][gc,phases     ] GC(9)   Other: 0.8ms
[2021-10-24T17:52:33.253+0200][gc,heap       ] GC(9) Eden regions: 45->0(46)
[2021-10-24T17:52:33.254+0200][gc,heap       ] GC(9) Survivor regions: 6->5(7)
[2021-10-24T17:52:33.254+0200][gc,heap       ] GC(9) Old regions: 16->19
[2021-10-24T17:52:33.254+0200][gc,heap       ] GC(9) Humongous regions: 129->129
[2021-10-24T17:52:33.254+0200][gc,metaspace  ] GC(9) Metaspace: 40686K->40686K(1085440K)
[2021-10-24T17:52:33.254+0200][gc            ] GC(9) Pause Young (Normal) (G1 Evacuation Pause) 193M->151M(1024M) 22.774ms
[2021-10-24T17:52:33.254+0200][gc,cpu        ] GC(9) User=0.03s Sys=0.00s Real=0.02s
[2021-10-24T17:58:15.887+0200][gc,heap,exit  ] Heap
[2021-10-24T17:58:15.887+0200][gc,heap,exit  ]  garbage-first heap   total 1048576K, used 193689K [0x00000000c0000000, 0x0000000100000000)
[2021-10-24T17:58:15.887+0200][gc,heap,exit  ]   region size 1024K, 45 young (46080K), 5 survivors (5120K)
[2021-10-24T17:58:15.887+0200][gc,heap,exit  ]  Metaspace       used 41536K, capacity 43689K, committed 43900K, reserved 1087488K
[2021-10-24T17:58:15.887+0200][gc,heap,exit  ]   class space    used 5438K, capacity 6449K, committed 6524K, reserved 1048576K
