[2021-10-24T17:59:16.463+0200][gc,heap] Heap region size: 1M
[2021-10-24T17:59:16.472+0200][gc     ] Using G1
[2021-10-24T17:59:16.472+0200][gc,heap,coops] Heap address: 0x00000000c0000000, size: 1024 MB, Compressed Oops mode: 32-bit
[2021-10-24T17:59:16.472+0200][gc,cds       ] Mark closed archive regions in map: [0x00000000fff00000, 0x00000000fff6aff8]
[2021-10-24T17:59:16.472+0200][gc,cds       ] Mark open archive regions in map: [0x00000000ffe00000, 0x00000000ffe46ff8]
[2021-10-24T17:59:17.925+0200][gc,start     ] GC(0) Pause Young (Normal) (G1 Evacuation Pause)
[2021-10-24T17:59:17.925+0200][gc,task      ] GC(0) Using 2 workers of 2 for evacuation
[2021-10-24T17:59:17.939+0200][gc,phases    ] GC(0)   Pre Evacuate Collection Set: 0.1ms
[2021-10-24T17:59:17.939+0200][gc,phases    ] GC(0)   Evacuate Collection Set: 13.7ms
[2021-10-24T17:59:17.939+0200][gc,phases    ] GC(0)   Post Evacuate Collection Set: 0.4ms
[2021-10-24T17:59:17.939+0200][gc,phases    ] GC(0)   Other: 0.5ms
[2021-10-24T17:59:17.939+0200][gc,heap      ] GC(0) Eden regions: 51->0(44)
[2021-10-24T17:59:17.939+0200][gc,heap      ] GC(0) Survivor regions: 0->7(7)
[2021-10-24T17:59:17.939+0200][gc,heap      ] GC(0) Old regions: 2->2
[2021-10-24T17:59:17.939+0200][gc,heap      ] GC(0) Humongous regions: 0->0
[2021-10-24T17:59:17.939+0200][gc,metaspace ] GC(0) Metaspace: 15261K->15261K(1062912K)
[2021-10-24T17:59:17.939+0200][gc           ] GC(0) Pause Young (Normal) (G1 Evacuation Pause) 51M->7M(1024M) 14.869ms
[2021-10-24T17:59:17.939+0200][gc,cpu       ] GC(0) User=0.03s Sys=0.00s Real=0.01s
[2021-10-24T17:59:18.349+0200][gc,start     ] GC(1) Pause Young (Concurrent Start) (Metadata GC Threshold)
[2021-10-24T17:59:18.349+0200][gc,task      ] GC(1) Using 2 workers of 2 for evacuation
[2021-10-24T17:59:18.373+0200][gc,mmu       ] GC(1) MMU target violated: 21.0ms (20.0ms/21.0ms)
[2021-10-24T17:59:18.373+0200][gc,phases    ] GC(1)   Pre Evacuate Collection Set: 0.0ms
[2021-10-24T17:59:18.373+0200][gc,phases    ] GC(1)   Evacuate Collection Set: 23.4ms
[2021-10-24T17:59:18.373+0200][gc,phases    ] GC(1)   Post Evacuate Collection Set: 0.4ms
[2021-10-24T17:59:18.373+0200][gc,phases    ] GC(1)   Other: 0.3ms
[2021-10-24T17:59:18.373+0200][gc,heap      ] GC(1) Eden regions: 21->0(50)
[2021-10-24T17:59:18.373+0200][gc,heap      ] GC(1) Survivor regions: 7->1(7)
[2021-10-24T17:59:18.373+0200][gc,heap      ] GC(1) Old regions: 2->9
[2021-10-24T17:59:18.373+0200][gc,heap      ] GC(1) Humongous regions: 0->0
[2021-10-24T17:59:18.373+0200][gc,metaspace ] GC(1) Metaspace: 20598K->20598K(1067008K)
[2021-10-24T17:59:18.373+0200][gc           ] GC(1) Pause Young (Concurrent Start) (Metadata GC Threshold) 28M->8M(1024M) 24.189ms
[2021-10-24T17:59:18.373+0200][gc,cpu       ] GC(1) User=0.03s Sys=0.01s Real=0.03s
[2021-10-24T17:59:18.373+0200][gc           ] GC(2) Concurrent Cycle
[2021-10-24T17:59:18.374+0200][gc,marking   ] GC(2) Concurrent Clear Claimed Marks
[2021-10-24T17:59:18.374+0200][gc,marking   ] GC(2) Concurrent Clear Claimed Marks 0.080ms
[2021-10-24T17:59:18.374+0200][gc,marking   ] GC(2) Concurrent Scan Root Regions
[2021-10-24T17:59:18.375+0200][gc,marking   ] GC(2) Concurrent Scan Root Regions 1.498ms
[2021-10-24T17:59:18.375+0200][gc,marking   ] GC(2) Concurrent Mark (1.915s)
[2021-10-24T17:59:18.375+0200][gc,marking   ] GC(2) Concurrent Mark From Roots
[2021-10-24T17:59:18.375+0200][gc,task      ] GC(2) Using 1 workers of 1 for marking
[2021-10-24T17:59:18.382+0200][gc,marking   ] GC(2) Concurrent Mark From Roots 6.646ms
[2021-10-24T17:59:18.382+0200][gc,marking   ] GC(2) Concurrent Preclean
[2021-10-24T17:59:18.382+0200][gc,marking   ] GC(2) Concurrent Preclean 0.048ms
[2021-10-24T17:59:18.382+0200][gc,marking   ] GC(2) Concurrent Mark (1.915s, 1.922s) 6.724ms
[2021-10-24T17:59:18.382+0200][gc,start     ] GC(2) Pause Remark
[2021-10-24T17:59:18.384+0200][gc,stringtable] GC(2) Cleaned string and symbol table, strings: 5039 processed, 0 removed, symbols: 50637 processed, 58 removed
[2021-10-24T17:59:18.384+0200][gc            ] GC(2) Pause Remark 8M->8M(1024M) 2.149ms
[2021-10-24T17:59:18.384+0200][gc,cpu        ] GC(2) User=0.00s Sys=0.00s Real=0.00s
[2021-10-24T17:59:18.387+0200][gc,marking    ] GC(2) Concurrent Rebuild Remembered Sets
[2021-10-24T17:59:18.406+0200][gc,marking    ] GC(2) Concurrent Rebuild Remembered Sets 19.763ms
[2021-10-24T17:59:18.410+0200][gc,start      ] GC(2) Pause Cleanup
[2021-10-24T17:59:18.410+0200][gc            ] GC(2) Pause Cleanup 9M->9M(1024M) 0.200ms
[2021-10-24T17:59:18.410+0200][gc,cpu        ] GC(2) User=0.00s Sys=0.00s Real=0.00s
[2021-10-24T17:59:18.410+0200][gc,marking    ] GC(2) Concurrent Cleanup for Next Mark
[2021-10-24T17:59:18.427+0200][gc,marking    ] GC(2) Concurrent Cleanup for Next Mark 16.815ms
[2021-10-24T17:59:18.427+0200][gc            ] GC(2) Concurrent Cycle 53.186ms
[2021-10-24T17:59:19.347+0200][gc,start      ] GC(3) Pause Young (Normal) (G1 Evacuation Pause)
[2021-10-24T17:59:19.347+0200][gc,task       ] GC(3) Using 2 workers of 2 for evacuation
[2021-10-24T17:59:19.356+0200][gc,phases     ] GC(3)   Pre Evacuate Collection Set: 0.0ms
[2021-10-24T17:59:19.357+0200][gc,phases     ] GC(3)   Evacuate Collection Set: 9.0ms
[2021-10-24T17:59:19.357+0200][gc,phases     ] GC(3)   Post Evacuate Collection Set: 0.4ms
[2021-10-24T17:59:19.357+0200][gc,phases     ] GC(3)   Other: 0.2ms
[2021-10-24T17:59:19.357+0200][gc,heap       ] GC(3) Eden regions: 50->0(47)
[2021-10-24T17:59:19.357+0200][gc,heap       ] GC(3) Survivor regions: 1->4(7)
[2021-10-24T17:59:19.357+0200][gc,heap       ] GC(3) Old regions: 9->9
[2021-10-24T17:59:19.357+0200][gc,heap       ] GC(3) Humongous regions: 129->129
[2021-10-24T17:59:19.357+0200][gc,metaspace  ] GC(3) Metaspace: 29757K->29757K(1075200K)
[2021-10-24T17:59:19.357+0200][gc            ] GC(3) Pause Young (Normal) (G1 Evacuation Pause) 187M->139M(1024M) 9.719ms
[2021-10-24T17:59:19.357+0200][gc,cpu        ] GC(3) User=0.02s Sys=0.00s Real=0.01s
[2021-10-24T17:59:19.837+0200][gc,start      ] GC(4) Pause Young (Concurrent Start) (Metadata GC Threshold)
[2021-10-24T17:59:19.837+0200][gc,task       ] GC(4) Using 2 workers of 2 for evacuation
[2021-10-24T17:59:19.854+0200][gc,phases     ] GC(4)   Pre Evacuate Collection Set: 0.6ms
[2021-10-24T17:59:19.854+0200][gc,phases     ] GC(4)   Evacuate Collection Set: 16.0ms
[2021-10-24T17:59:19.854+0200][gc,phases     ] GC(4)   Post Evacuate Collection Set: 0.4ms
[2021-10-24T17:59:19.854+0200][gc,phases     ] GC(4)   Other: 0.7ms
[2021-10-24T17:59:19.854+0200][gc,heap       ] GC(4) Eden regions: 23->0(45)
[2021-10-24T17:59:19.854+0200][gc,heap       ] GC(4) Survivor regions: 4->6(7)
[2021-10-24T17:59:19.854+0200][gc,heap       ] GC(4) Old regions: 9->9
[2021-10-24T17:59:19.854+0200][gc,heap       ] GC(4) Humongous regions: 129->129
[2021-10-24T17:59:19.854+0200][gc,metaspace  ] GC(4) Metaspace: 34551K->34551K(1081344K)
[2021-10-24T17:59:19.854+0200][gc            ] GC(4) Pause Young (Concurrent Start) (Metadata GC Threshold) 162M->141M(1024M) 17.697ms
[2021-10-24T17:59:19.854+0200][gc,cpu        ] GC(4) User=0.02s Sys=0.01s Real=0.02s
[2021-10-24T17:59:19.854+0200][gc            ] GC(5) Concurrent Cycle
[2021-10-24T17:59:19.854+0200][gc,marking    ] GC(5) Concurrent Clear Claimed Marks
[2021-10-24T17:59:19.854+0200][gc,marking    ] GC(5) Concurrent Clear Claimed Marks 0.134ms
[2021-10-24T17:59:19.854+0200][gc,marking    ] GC(5) Concurrent Scan Root Regions
[2021-10-24T17:59:19.860+0200][gc,marking    ] GC(5) Concurrent Scan Root Regions 5.877ms
[2021-10-24T17:59:19.860+0200][gc,marking    ] GC(5) Concurrent Mark (3.400s)
[2021-10-24T17:59:19.860+0200][gc,marking    ] GC(5) Concurrent Mark From Roots
[2021-10-24T17:59:19.860+0200][gc,task       ] GC(5) Using 1 workers of 1 for marking
[2021-10-24T17:59:19.895+0200][gc,marking    ] GC(5) Concurrent Mark From Roots 34.119ms
[2021-10-24T17:59:19.895+0200][gc,marking    ] GC(5) Concurrent Preclean
[2021-10-24T17:59:19.895+0200][gc,marking    ] GC(5) Concurrent Preclean 0.379ms
[2021-10-24T17:59:19.895+0200][gc,marking    ] GC(5) Concurrent Mark (3.400s, 3.435s) 35.036ms
[2021-10-24T17:59:19.897+0200][gc,start      ] GC(5) Pause Remark
[2021-10-24T17:59:19.903+0200][gc,stringtable] GC(5) Cleaned string and symbol table, strings: 10290 processed, 12 removed, symbols: 84748 processed, 16 removed
[2021-10-24T17:59:19.903+0200][gc            ] GC(5) Pause Remark 142M->142M(1024M) 5.917ms
[2021-10-24T17:59:19.903+0200][gc,cpu        ] GC(5) User=0.01s Sys=0.00s Real=0.01s
[2021-10-24T17:59:19.903+0200][gc,marking    ] GC(5) Concurrent Rebuild Remembered Sets
[2021-10-24T17:59:19.910+0200][gc,marking    ] GC(5) Concurrent Rebuild Remembered Sets 6.465ms
[2021-10-24T17:59:19.912+0200][gc,start      ] GC(5) Pause Cleanup
[2021-10-24T17:59:19.913+0200][gc            ] GC(5) Pause Cleanup 142M->142M(1024M) 0.221ms
[2021-10-24T17:59:19.913+0200][gc,cpu        ] GC(5) User=0.00s Sys=0.00s Real=0.00s
[2021-10-24T17:59:19.913+0200][gc,marking    ] GC(5) Concurrent Cleanup for Next Mark
[2021-10-24T17:59:19.925+0200][gc,marking    ] GC(5) Concurrent Cleanup for Next Mark 12.064ms
[2021-10-24T17:59:19.925+0200][gc            ] GC(5) Concurrent Cycle 70.471ms
[2021-10-24T18:04:16.405+0200][gc,start      ] GC(6) Pause Young (Concurrent Start) (G1 Evacuation Pause)
[2021-10-24T18:04:16.405+0200][gc,task       ] GC(6) Using 2 workers of 2 for evacuation
[2021-10-24T18:04:16.419+0200][gc,phases     ] GC(6)   Pre Evacuate Collection Set: 0.2ms
[2021-10-24T18:04:16.419+0200][gc,phases     ] GC(6)   Evacuate Collection Set: 11.6ms
[2021-10-24T18:04:16.419+0200][gc,phases     ] GC(6)   Post Evacuate Collection Set: 1.1ms
[2021-10-24T18:04:16.419+0200][gc,phases     ] GC(6)   Other: 0.7ms
[2021-10-24T18:04:16.419+0200][gc,heap       ] GC(6) Eden regions: 45->0(46)
[2021-10-24T18:04:16.419+0200][gc,heap       ] GC(6) Survivor regions: 6->5(7)
[2021-10-24T18:04:16.419+0200][gc,heap       ] GC(6) Old regions: 9->13
[2021-10-24T18:04:16.419+0200][gc,heap       ] GC(6) Humongous regions: 129->129
[2021-10-24T18:04:16.419+0200][gc,metaspace  ] GC(6) Metaspace: 40514K->40514K(1085440K)
[2021-10-24T18:04:16.419+0200][gc            ] GC(6) Pause Young (Concurrent Start) (G1 Evacuation Pause) 186M->144M(1024M) 13.662ms
[2021-10-24T18:04:16.419+0200][gc,cpu        ] GC(6) User=0.02s Sys=0.00s Real=0.01s
[2021-10-24T18:04:16.419+0200][gc            ] GC(7) Concurrent Cycle
[2021-10-24T18:04:16.419+0200][gc,marking    ] GC(7) Concurrent Clear Claimed Marks
[2021-10-24T18:04:16.419+0200][gc,marking    ] GC(7) Concurrent Clear Claimed Marks 0.137ms
[2021-10-24T18:04:16.419+0200][gc,marking    ] GC(7) Concurrent Scan Root Regions
[2021-10-24T18:04:16.422+0200][gc,marking    ] GC(7) Concurrent Scan Root Regions 3.179ms
[2021-10-24T18:04:16.422+0200][gc,marking    ] GC(7) Concurrent Mark (299.962s)
[2021-10-24T18:04:16.422+0200][gc,marking    ] GC(7) Concurrent Mark From Roots
[2021-10-24T18:04:16.422+0200][gc,task       ] GC(7) Using 1 workers of 1 for marking
[2021-10-24T18:04:16.434+0200][gc,marking    ] GC(7) Concurrent Mark From Roots 12.139ms
[2021-10-24T18:04:16.434+0200][gc,marking    ] GC(7) Concurrent Preclean
[2021-10-24T18:04:16.434+0200][gc,marking    ] GC(7) Concurrent Preclean 0.062ms
[2021-10-24T18:04:16.434+0200][gc,marking    ] GC(7) Concurrent Mark (299.962s, 299.974s) 12.245ms
[2021-10-24T18:04:16.435+0200][gc,start      ] GC(7) Pause Remark
[2021-10-24T18:04:16.440+0200][gc,stringtable] GC(7) Cleaned string and symbol table, strings: 11374 processed, 2 removed, symbols: 89475 processed, 4 removed
[2021-10-24T18:04:16.440+0200][gc            ] GC(7) Pause Remark 144M->144M(1024M) 5.748ms
[2021-10-24T18:04:16.440+0200][gc,cpu        ] GC(7) User=0.01s Sys=0.00s Real=0.00s
[2021-10-24T18:04:16.441+0200][gc,marking    ] GC(7) Concurrent Rebuild Remembered Sets
[2021-10-24T18:04:16.447+0200][gc,marking    ] GC(7) Concurrent Rebuild Remembered Sets 6.754ms
[2021-10-24T18:04:16.448+0200][gc,start      ] GC(7) Pause Cleanup
[2021-10-24T18:04:16.448+0200][gc            ] GC(7) Pause Cleanup 144M->144M(1024M) 0.159ms
[2021-10-24T18:04:16.448+0200][gc,cpu        ] GC(7) User=0.00s Sys=0.00s Real=0.00s
[2021-10-24T18:04:16.448+0200][gc,marking    ] GC(7) Concurrent Cleanup for Next Mark
[2021-10-24T18:04:16.449+0200][gc,marking    ] GC(7) Concurrent Cleanup for Next Mark 0.993ms
[2021-10-24T18:04:16.449+0200][gc            ] GC(7) Concurrent Cycle 29.931ms
[2021-10-24T18:08:29.652+0200][gc,start      ] GC(8) Pause Young (Normal) (G1 Evacuation Pause)
[2021-10-24T18:08:29.653+0200][gc,task       ] GC(8) Using 2 workers of 2 for evacuation
[2021-10-24T18:08:29.666+0200][gc,phases     ] GC(8)   Pre Evacuate Collection Set: 0.5ms
[2021-10-24T18:08:29.666+0200][gc,phases     ] GC(8)   Evacuate Collection Set: 11.7ms
[2021-10-24T18:08:29.666+0200][gc,phases     ] GC(8)   Post Evacuate Collection Set: 0.5ms
[2021-10-24T18:08:29.667+0200][gc,phases     ] GC(8)   Other: 1.3ms
[2021-10-24T18:08:29.667+0200][gc,heap       ] GC(8) Eden regions: 46->0(46)
[2021-10-24T18:08:29.667+0200][gc,heap       ] GC(8) Survivor regions: 5->5(7)
[2021-10-24T18:08:29.667+0200][gc,heap       ] GC(8) Old regions: 13->14
[2021-10-24T18:08:29.667+0200][gc,heap       ] GC(8) Humongous regions: 129->129
[2021-10-24T18:08:29.667+0200][gc,metaspace  ] GC(8) Metaspace: 42731K->42731K(1087488K)
[2021-10-24T18:08:29.667+0200][gc            ] GC(8) Pause Young (Normal) (G1 Evacuation Pause) 190M->146M(1024M) 14.061ms
[2021-10-24T18:08:29.667+0200][gc,cpu        ] GC(8) User=0.02s Sys=0.00s Real=0.01s
[2021-10-24T18:13:56.773+0200][gc,start      ] GC(9) Pause Young (Normal) (G1 Evacuation Pause)
[2021-10-24T18:13:56.773+0200][gc,task       ] GC(9) Using 2 workers of 2 for evacuation
[2021-10-24T18:13:56.781+0200][gc,phases     ] GC(9)   Pre Evacuate Collection Set: 0.1ms
[2021-10-24T18:13:56.781+0200][gc,phases     ] GC(9)   Evacuate Collection Set: 7.3ms
[2021-10-24T18:13:56.781+0200][gc,phases     ] GC(9)   Post Evacuate Collection Set: 0.4ms
[2021-10-24T18:13:56.781+0200][gc,phases     ] GC(9)   Other: 0.3ms
[2021-10-24T18:13:56.781+0200][gc,heap       ] GC(9) Eden regions: 46->0(47)
[2021-10-24T18:13:56.781+0200][gc,heap       ] GC(9) Survivor regions: 5->4(7)
[2021-10-24T18:13:56.781+0200][gc,heap       ] GC(9) Old regions: 14->16
[2021-10-24T18:13:56.781+0200][gc,heap       ] GC(9) Humongous regions: 129->129
[2021-10-24T18:13:56.781+0200][gc,metaspace  ] GC(9) Metaspace: 42957K->42957K(1087488K)
[2021-10-24T18:13:56.781+0200][gc            ] GC(9) Pause Young (Normal) (G1 Evacuation Pause) 192M->147M(1024M) 8.258ms
[2021-10-24T18:13:56.782+0200][gc,cpu        ] GC(9) User=0.01s Sys=0.00s Real=0.00s
[2021-10-24T18:19:50.595+0200][gc,start      ] GC(10) Pause Young (Normal) (G1 Evacuation Pause)
[2021-10-24T18:19:50.595+0200][gc,task       ] GC(10) Using 2 workers of 2 for evacuation
[2021-10-24T18:19:50.629+0200][gc,mmu        ] GC(10) MMU target violated: 21.0ms (20.0ms/21.0ms)
[2021-10-24T18:19:50.629+0200][gc,phases     ] GC(10)   Pre Evacuate Collection Set: 0.1ms
[2021-10-24T18:19:50.629+0200][gc,phases     ] GC(10)   Evacuate Collection Set: 33.2ms
[2021-10-24T18:19:50.629+0200][gc,phases     ] GC(10)   Post Evacuate Collection Set: 0.6ms
[2021-10-24T18:19:50.629+0200][gc,phases     ] GC(10)   Other: 0.7ms
[2021-10-24T18:19:50.629+0200][gc,heap       ] GC(10) Eden regions: 47->0(47)
[2021-10-24T18:19:50.629+0200][gc,heap       ] GC(10) Survivor regions: 4->4(7)
[2021-10-24T18:19:50.629+0200][gc,heap       ] GC(10) Old regions: 16->17
[2021-10-24T18:19:50.629+0200][gc,heap       ] GC(10) Humongous regions: 129->129
[2021-10-24T18:19:50.629+0200][gc,metaspace  ] GC(10) Metaspace: 43062K->43062K(1087488K)
[2021-10-24T18:19:50.629+0200][gc            ] GC(10) Pause Young (Normal) (G1 Evacuation Pause) 194M->147M(1024M) 34.533ms
[2021-10-24T18:19:50.629+0200][gc,cpu        ] GC(10) User=0.02s Sys=0.00s Real=0.03s
[2021-10-24T18:25:54.363+0200][gc,start      ] GC(11) Pause Young (Normal) (G1 Evacuation Pause)
[2021-10-24T18:25:54.363+0200][gc,task       ] GC(11) Using 2 workers of 2 for evacuation
[2021-10-24T18:25:54.385+0200][gc,mmu        ] GC(11) MMU target violated: 21.0ms (20.0ms/21.0ms)
[2021-10-24T18:25:54.385+0200][gc,phases     ] GC(11)   Pre Evacuate Collection Set: 0.1ms
[2021-10-24T18:25:54.385+0200][gc,phases     ] GC(11)   Evacuate Collection Set: 20.9ms
[2021-10-24T18:25:54.385+0200][gc,phases     ] GC(11)   Post Evacuate Collection Set: 0.5ms
[2021-10-24T18:25:54.385+0200][gc,phases     ] GC(11)   Other: 0.4ms
[2021-10-24T18:25:54.385+0200][gc,heap       ] GC(11) Eden regions: 47->0(46)
[2021-10-24T18:25:54.385+0200][gc,heap       ] GC(11) Survivor regions: 4->5(7)
[2021-10-24T18:25:54.385+0200][gc,heap       ] GC(11) Old regions: 17->17
[2021-10-24T18:25:54.385+0200][gc,heap       ] GC(11) Humongous regions: 129->129
[2021-10-24T18:25:54.385+0200][gc,metaspace  ] GC(11) Metaspace: 43125K->43125K(1087488K)
[2021-10-24T18:25:54.385+0200][gc            ] GC(11) Pause Young (Normal) (G1 Evacuation Pause) 194M->149M(1024M) 21.972ms
[2021-10-24T18:25:54.385+0200][gc,cpu        ] GC(11) User=0.02s Sys=0.00s Real=0.02s
[2021-10-24T18:31:36.177+0200][gc,start      ] GC(12) Pause Young (Normal) (G1 Evacuation Pause)
[2021-10-24T18:31:36.178+0200][gc,task       ] GC(12) Using 2 workers of 2 for evacuation
[2021-10-24T18:31:36.186+0200][gc,phases     ] GC(12)   Pre Evacuate Collection Set: 0.1ms
[2021-10-24T18:31:36.186+0200][gc,phases     ] GC(12)   Evacuate Collection Set: 7.6ms
[2021-10-24T18:31:36.186+0200][gc,phases     ] GC(12)   Post Evacuate Collection Set: 0.4ms
[2021-10-24T18:31:36.186+0200][gc,phases     ] GC(12)   Other: 0.6ms
[2021-10-24T18:31:36.186+0200][gc,heap       ] GC(12) Eden regions: 46->0(46)
[2021-10-24T18:31:36.186+0200][gc,heap       ] GC(12) Survivor regions: 5->5(7)
[2021-10-24T18:31:36.186+0200][gc,heap       ] GC(12) Old regions: 17->18
[2021-10-24T18:31:36.186+0200][gc,heap       ] GC(12) Humongous regions: 129->129
[2021-10-24T18:31:36.186+0200][gc,metaspace  ] GC(12) Metaspace: 43323K->43323K(1087488K)
[2021-10-24T18:31:36.186+0200][gc            ] GC(12) Pause Young (Normal) (G1 Evacuation Pause) 195M->150M(1024M) 8.720ms
[2021-10-24T18:31:36.186+0200][gc,cpu        ] GC(12) User=0.01s Sys=0.01s Real=0.01s
[2021-10-24T18:38:33.172+0200][gc,start      ] GC(13) Pause Young (Normal) (G1 Evacuation Pause)
[2021-10-24T18:38:33.179+0200][gc,task       ] GC(13) Using 2 workers of 2 for evacuation
[2021-10-24T18:38:34.176+0200][gc,mmu        ] GC(13) MMU target violated: 21.0ms (20.0ms/21.0ms)
[2021-10-24T18:38:34.990+0200][gc,phases     ] GC(13)   Pre Evacuate Collection Set: 20.0ms
[2021-10-24T18:38:35.536+0200][gc,phases     ] GC(13)   Evacuate Collection Set: 817.8ms
[2021-10-24T18:38:35.778+0200][gc,phases     ] GC(13)   Post Evacuate Collection Set: 77.9ms
[2021-10-24T18:38:36.831+0200][gc,phases     ] GC(13)   Other: 722.4ms
[2021-10-24T18:38:37.625+0200][gc,heap       ] GC(13) Eden regions: 46->0(46)
[2021-10-24T18:38:37.840+0200][gc,heap       ] GC(13) Survivor regions: 5->5(7)
[2021-10-24T18:38:38.029+0200][gc,heap       ] GC(13) Old regions: 18->19
[2021-10-24T18:38:38.251+0200][gc,heap       ] GC(13) Humongous regions: 129->129
[2021-10-24T18:38:38.517+0200][gc,metaspace  ] GC(13) Metaspace: 43761K->43761K(1089536K)
[2021-10-24T18:38:38.877+0200][gc            ] GC(13) Pause Young (Normal) (G1 Evacuation Pause) 196M->151M(1024M) 5662.298ms
[2021-10-24T18:38:38.915+0200][gc,cpu        ] GC(13) User=0.00s Sys=0.22s Real=5.74s
