[2021-10-24T17:50:40.651+0200][gc,heap] Heap region size: 1M
[2021-10-24T17:50:40.660+0200][gc     ] Using G1
[2021-10-24T17:50:40.660+0200][gc,heap,coops] Heap address: 0x00000000c0000000, size: 1024 MB, Compressed Oops mode: 32-bit
[2021-10-24T17:50:40.660+0200][gc,cds       ] Mark closed archive regions in map: [0x00000000fff00000, 0x00000000fff6aff8]
[2021-10-24T17:50:40.660+0200][gc,cds       ] Mark open archive regions in map: [0x00000000ffe00000, 0x00000000ffe46ff8]
[2021-10-24T17:50:42.188+0200][gc,start     ] GC(0) Pause Young (Normal) (G1 Evacuation Pause)
[2021-10-24T17:50:42.189+0200][gc,task      ] GC(0) Using 2 workers of 2 for evacuation
[2021-10-24T17:50:42.200+0200][gc,phases    ] GC(0)   Pre Evacuate Collection Set: 0.0ms
[2021-10-24T17:50:42.200+0200][gc,phases    ] GC(0)   Evacuate Collection Set: 10.2ms
[2021-10-24T17:50:42.200+0200][gc,phases    ] GC(0)   Post Evacuate Collection Set: 0.4ms
[2021-10-24T17:50:42.200+0200][gc,phases    ] GC(0)   Other: 0.4ms
[2021-10-24T17:50:42.200+0200][gc,heap      ] GC(0) Eden regions: 51->0(44)
[2021-10-24T17:50:42.200+0200][gc,heap      ] GC(0) Survivor regions: 0->7(7)
[2021-10-24T17:50:42.200+0200][gc,heap      ] GC(0) Old regions: 2->2
[2021-10-24T17:50:42.200+0200][gc,heap      ] GC(0) Humongous regions: 0->0
[2021-10-24T17:50:42.200+0200][gc,metaspace ] GC(0) Metaspace: 15148K->15148K(1062912K)
[2021-10-24T17:50:42.200+0200][gc           ] GC(0) Pause Young (Normal) (G1 Evacuation Pause) 51M->7M(1024M) 11.247ms
[2021-10-24T17:50:42.200+0200][gc,cpu       ] GC(0) User=0.01s Sys=0.01s Real=0.01s
[2021-10-24T17:50:42.648+0200][gc,start     ] GC(1) Pause Young (Concurrent Start) (Metadata GC Threshold)
[2021-10-24T17:50:42.648+0200][gc,task      ] GC(1) Using 2 workers of 2 for evacuation
[2021-10-24T17:50:42.673+0200][gc,mmu       ] GC(1) MMU target violated: 21.0ms (20.0ms/21.0ms)
[2021-10-24T17:50:42.674+0200][gc,phases    ] GC(1)   Pre Evacuate Collection Set: 0.0ms
[2021-10-24T17:50:42.674+0200][gc,phases    ] GC(1)   Evacuate Collection Set: 25.0ms
[2021-10-24T17:50:42.674+0200][gc,phases    ] GC(1)   Post Evacuate Collection Set: 0.5ms
[2021-10-24T17:50:42.674+0200][gc,phases    ] GC(1)   Other: 0.3ms
[2021-10-24T17:50:42.674+0200][gc,heap      ] GC(1) Eden regions: 22->0(50)
[2021-10-24T17:50:42.674+0200][gc,heap      ] GC(1) Survivor regions: 7->1(7)
[2021-10-24T17:50:42.674+0200][gc,heap      ] GC(1) Old regions: 2->9
[2021-10-24T17:50:42.674+0200][gc,heap      ] GC(1) Humongous regions: 0->0
[2021-10-24T17:50:42.674+0200][gc,metaspace ] GC(1) Metaspace: 20581K->20581K(1067008K)
[2021-10-24T17:50:42.674+0200][gc           ] GC(1) Pause Young (Concurrent Start) (Metadata GC Threshold) 29M->8M(1024M) 25.841ms
[2021-10-24T17:50:42.674+0200][gc,cpu       ] GC(1) User=0.01s Sys=0.02s Real=0.03s
[2021-10-24T17:50:42.674+0200][gc           ] GC(2) Concurrent Cycle
[2021-10-24T17:50:42.674+0200][gc,marking   ] GC(2) Concurrent Clear Claimed Marks
[2021-10-24T17:50:42.674+0200][gc,marking   ] GC(2) Concurrent Clear Claimed Marks 0.068ms
[2021-10-24T17:50:42.674+0200][gc,marking   ] GC(2) Concurrent Scan Root Regions
[2021-10-24T17:50:42.675+0200][gc,marking   ] GC(2) Concurrent Scan Root Regions 1.004ms
[2021-10-24T17:50:42.675+0200][gc,marking   ] GC(2) Concurrent Mark (2.028s)
[2021-10-24T17:50:42.675+0200][gc,marking   ] GC(2) Concurrent Mark From Roots
[2021-10-24T17:50:42.675+0200][gc,task      ] GC(2) Using 1 workers of 1 for marking
[2021-10-24T17:50:42.686+0200][gc,marking   ] GC(2) Concurrent Mark From Roots 11.467ms
[2021-10-24T17:50:42.686+0200][gc,marking   ] GC(2) Concurrent Preclean
[2021-10-24T17:50:42.686+0200][gc,marking   ] GC(2) Concurrent Preclean 0.057ms
[2021-10-24T17:50:42.686+0200][gc,marking   ] GC(2) Concurrent Mark (2.028s, 2.040s) 11.567ms
[2021-10-24T17:50:42.689+0200][gc,start     ] GC(2) Pause Remark
[2021-10-24T17:50:42.692+0200][gc,stringtable] GC(2) Cleaned string and symbol table, strings: 5075 processed, 0 removed, symbols: 50816 processed, 59 removed
[2021-10-24T17:50:42.693+0200][gc            ] GC(2) Pause Remark 9M->9M(1024M) 3.406ms
[2021-10-24T17:50:42.693+0200][gc,cpu        ] GC(2) User=0.00s Sys=0.00s Real=0.01s
[2021-10-24T17:50:42.693+0200][gc,marking    ] GC(2) Concurrent Rebuild Remembered Sets
[2021-10-24T17:50:42.698+0200][gc,marking    ] GC(2) Concurrent Rebuild Remembered Sets 5.323ms
[2021-10-24T17:50:42.698+0200][gc,start      ] GC(2) Pause Cleanup
[2021-10-24T17:50:42.699+0200][gc            ] GC(2) Pause Cleanup 9M->9M(1024M) 0.280ms
[2021-10-24T17:50:42.699+0200][gc,cpu        ] GC(2) User=0.00s Sys=0.00s Real=0.00s
[2021-10-24T17:50:42.699+0200][gc,marking    ] GC(2) Concurrent Cleanup for Next Mark
[2021-10-24T17:50:42.728+0200][gc,marking    ] GC(2) Concurrent Cleanup for Next Mark 29.159ms
[2021-10-24T17:50:42.728+0200][gc            ] GC(2) Concurrent Cycle 54.358ms
[2021-10-24T17:50:43.589+0200][gc,start      ] GC(3) Pause Young (Normal) (G1 Evacuation Pause)
[2021-10-24T17:50:43.589+0200][gc,task       ] GC(3) Using 2 workers of 2 for evacuation
[2021-10-24T17:50:43.602+0200][gc,phases     ] GC(3)   Pre Evacuate Collection Set: 0.1ms
[2021-10-24T17:50:43.602+0200][gc,phases     ] GC(3)   Evacuate Collection Set: 12.0ms
[2021-10-24T17:50:43.602+0200][gc,phases     ] GC(3)   Post Evacuate Collection Set: 0.4ms
[2021-10-24T17:50:43.602+0200][gc,phases     ] GC(3)   Other: 0.7ms
[2021-10-24T17:50:43.602+0200][gc,heap       ] GC(3) Eden regions: 50->0(46)
[2021-10-24T17:50:43.602+0200][gc,heap       ] GC(3) Survivor regions: 1->5(7)
[2021-10-24T17:50:43.602+0200][gc,heap       ] GC(3) Old regions: 9->9
[2021-10-24T17:50:43.602+0200][gc,heap       ] GC(3) Humongous regions: 129->129
[2021-10-24T17:50:43.602+0200][gc,metaspace  ] GC(3) Metaspace: 29375K->29375K(1075200K)
[2021-10-24T17:50:43.602+0200][gc            ] GC(3) Pause Young (Normal) (G1 Evacuation Pause) 187M->140M(1024M) 13.232ms
[2021-10-24T17:50:43.602+0200][gc,cpu        ] GC(3) User=0.02s Sys=0.01s Real=0.02s
[2021-10-24T17:50:44.143+0200][gc,start      ] GC(4) Pause Young (Concurrent Start) (Metadata GC Threshold)
[2021-10-24T17:50:44.143+0200][gc,task       ] GC(4) Using 2 workers of 2 for evacuation
[2021-10-24T17:50:44.151+0200][gc,phases     ] GC(4)   Pre Evacuate Collection Set: 0.1ms
[2021-10-24T17:50:44.151+0200][gc,phases     ] GC(4)   Evacuate Collection Set: 7.9ms
[2021-10-24T17:50:44.151+0200][gc,phases     ] GC(4)   Post Evacuate Collection Set: 0.4ms
[2021-10-24T17:50:44.151+0200][gc,phases     ] GC(4)   Other: 0.2ms
[2021-10-24T17:50:44.151+0200][gc,heap       ] GC(4) Eden regions: 27->0(49)
[2021-10-24T17:50:44.151+0200][gc,heap       ] GC(4) Survivor regions: 5->2(7)
[2021-10-24T17:50:44.151+0200][gc,heap       ] GC(4) Old regions: 9->13
[2021-10-24T17:50:44.151+0200][gc,heap       ] GC(4) Humongous regions: 129->129
[2021-10-24T17:50:44.151+0200][gc,metaspace  ] GC(4) Metaspace: 34680K->34680K(1081344K)
[2021-10-24T17:50:44.151+0200][gc            ] GC(4) Pause Young (Concurrent Start) (Metadata GC Threshold) 166M->142M(1024M) 8.694ms
[2021-10-24T17:50:44.151+0200][gc,cpu        ] GC(4) User=0.01s Sys=0.01s Real=0.01s
[2021-10-24T17:50:44.151+0200][gc            ] GC(5) Concurrent Cycle
[2021-10-24T17:50:44.151+0200][gc,marking    ] GC(5) Concurrent Clear Claimed Marks
[2021-10-24T17:50:44.151+0200][gc,marking    ] GC(5) Concurrent Clear Claimed Marks 0.085ms
[2021-10-24T17:50:44.151+0200][gc,marking    ] GC(5) Concurrent Scan Root Regions
[2021-10-24T17:50:44.153+0200][gc,marking    ] GC(5) Concurrent Scan Root Regions 1.182ms
[2021-10-24T17:50:44.153+0200][gc,marking    ] GC(5) Concurrent Mark (3.506s)
[2021-10-24T17:50:44.153+0200][gc,marking    ] GC(5) Concurrent Mark From Roots
[2021-10-24T17:50:44.153+0200][gc,task       ] GC(5) Using 1 workers of 1 for marking
[2021-10-24T17:50:44.183+0200][gc,marking    ] GC(5) Concurrent Mark From Roots 30.500ms
[2021-10-24T17:50:44.183+0200][gc,marking    ] GC(5) Concurrent Preclean
[2021-10-24T17:50:44.183+0200][gc,marking    ] GC(5) Concurrent Preclean 0.062ms
[2021-10-24T17:50:44.183+0200][gc,marking    ] GC(5) Concurrent Mark (3.506s, 3.537s) 30.614ms
[2021-10-24T17:50:44.183+0200][gc,start      ] GC(5) Pause Remark
[2021-10-24T17:50:44.186+0200][gc,stringtable] GC(5) Cleaned string and symbol table, strings: 10708 processed, 12 removed, symbols: 83903 processed, 18 removed
[2021-10-24T17:50:44.186+0200][gc            ] GC(5) Pause Remark 143M->143M(1024M) 2.984ms
[2021-10-24T17:50:44.186+0200][gc,cpu        ] GC(5) User=0.00s Sys=0.00s Real=0.00s
[2021-10-24T17:50:44.186+0200][gc,marking    ] GC(5) Concurrent Rebuild Remembered Sets
[2021-10-24T17:50:44.196+0200][gc,marking    ] GC(5) Concurrent Rebuild Remembered Sets 9.220ms
[2021-10-24T17:50:44.196+0200][gc,start      ] GC(5) Pause Cleanup
[2021-10-24T17:50:44.196+0200][gc            ] GC(5) Pause Cleanup 143M->143M(1024M) 0.229ms
[2021-10-24T17:50:44.196+0200][gc,cpu        ] GC(5) User=0.00s Sys=0.00s Real=0.00s
[2021-10-24T17:50:44.196+0200][gc,marking    ] GC(5) Concurrent Cleanup for Next Mark
[2021-10-24T17:50:44.230+0200][gc,marking    ] GC(5) Concurrent Cleanup for Next Mark 33.240ms
[2021-10-24T17:50:44.230+0200][gc            ] GC(5) Concurrent Cycle 78.347ms
[2021-10-24T17:58:17.040+0200][gc,heap,exit  ] Heap
[2021-10-24T17:58:17.041+0200][gc,heap,exit  ]  garbage-first heap   total 1048576K, used 163038K [0x00000000c0000000, 0x0000000100000000)
[2021-10-24T17:58:17.041+0200][gc,heap,exit  ]   region size 1024K, 20 young (20480K), 2 survivors (2048K)
[2021-10-24T17:58:17.041+0200][gc,heap,exit  ]  Metaspace       used 36623K, capacity 38101K, committed 38268K, reserved 1081344K
[2021-10-24T17:58:17.041+0200][gc,heap,exit  ]   class space    used 4749K, capacity 5452K, committed 5500K, reserved 1048576K
